ANÁLISIS DE PRODUCTIVIDAD DE CULTIVO DE FREJOL BAJO CONDICIONES DE UN SISTEMA AGROVOLTAICO
…
Eliminación de los valores fuera de serie (outliers) con el pauquete inti

library(inti)
model <- remove_outliers(data = Db
                         , formula = Days_to_germination_number ~ Blocks + sistemas + variedad + distanciamiento + sistemas*variedad*distanciamiento + (1 | Blocks)
                         , plot_diag = T)
model
## $data
## $data$raw
## # A tibble: 144 × 6
##    index Blocks sistemas     variedad distanciamiento Days_to_germination_number
##    <chr> <chr>  <chr>        <chr>    <chr>                                <dbl>
##  1 1     B1     Conventional V1       D1                                       7
##  2 2     B1     Conventional V1       D1                                       7
##  3 3     B1     Conventional V1       D1                                       7
##  4 4     B1     Conventional V1       D1                                       7
##  5 5     B1     Conventional V1       D2                                       9
##  6 6     B1     Conventional V1       D2                                       9
##  7 7     B1     Conventional V1       D2                                       9
##  8 8     B1     Conventional V1       D2                                       9
##  9 9     B1     Conventional V2       D1                                      10
## 10 10    B1     Conventional V2       D1                                      10
## # ℹ 134 more rows
## 
## $data$clean
##     index Blocks     sistemas variedad distanciamiento
## 1       1     B1 Conventional       V1              D1
## 2       2     B1 Conventional       V1              D1
## 3       3     B1 Conventional       V1              D1
## 4       4     B1 Conventional       V1              D1
## 5       5     B1 Conventional       V1              D2
…
Eliminación de los valores fuera de serie (outliers) con el pauquete inti

library(inti)
model <- remove_outliers(data = Db
                         , formula = Yield_kg_ha ~ Blocks + sistemas + variedad + distanciamiento + sistemas*variedad*distanciamiento + (1 | Blocks)
                         , plot_diag = T)
model
## $data
## $data$raw
## # A tibble: 144 × 6
##    index Blocks sistemas     variedad distanciamiento Yield_kg_ha
##    <chr> <chr>  <chr>        <chr>    <chr>                 <dbl>
##  1 1     B1     Conventional V1       D1                     27.1
##  2 2     B1     Conventional V1       D1                     32.5
##  3 3     B1     Conventional V1       D1                     38.7
##  4 4     B1     Conventional V1       D1                     46.0
##  5 5     B1     Conventional V1       D2                     11.0
##  6 6     B1     Conventional V1       D2                     19.5
##  7 7     B1     Conventional V1       D2                     26.2
##  8 8     B1     Conventional V1       D2                     21.5
##  9 9     B1     Conventional V2       D1                     30.4
## 10 10    B1     Conventional V2       D1                     36.4
## # ℹ 134 more rows
## 
## $data$clean
##     index Blocks     sistemas variedad distanciamiento Yield_kg_ha
## 1       1     B1 Conventional       V1              D1       27.12
## 2       2     B1 Conventional       V1              D1       32.51
## 3       3     B1 Conventional       V1              D1       38.72
## 4       4     B1 Conventional       V1              D1       45.99
## 5       5     B1 Conventional       V1              D2       11.01
…
