Análisis De Productividad De Cultivo De Frejol Bajo Condiciones De Un Sistema Agrovoltaico
…
library(inti)

model <- remove_outliers(data = Db
                         , formula = Days_to_germination_number ~ sistemas + distanciamiento + sistemas*distanciamiento + (1|Blocks)
                         , plot_diag = T
                         )

model
## $data
## $data$raw
## # A tibble: 144 × 5
##    index sistemas     distanciamiento Blocks Days_to_germination_number
##    <chr> <chr>        <chr>           <chr>                       <dbl>
##  1 1     Conventional D1              B1                              7
##  2 2     Conventional D1              B1                              7
##  3 3     Conventional D1              B1                              7
##  4 4     Conventional D1              B1                              7
##  5 5     Conventional D2              B1                              9
##  6 6     Conventional D2              B1                              9
##  7 7     Conventional D2              B1                              9
##  8 8     Conventional D2              B1                              9
##  9 9     Conventional D1              B1                             10
## 10 10    Conventional D1              B1                             10
## # ℹ 134 more rows
## 
## $data$clean
##     index     sistemas distanciamiento Blocks Days_to_germination_number
## 1       1 Conventional              D1     B1                          7
## 2       2 Conventional              D1     B1                          7
## 3       3 Conventional              D1     B1                          7
## 4       4 Conventional              D1     B1                          7
## 5       5 Conventional              D2     B1                          9
…
